"gamemounting.txt"
{
	"Left 4 Dead"
	{
		"appid"		"500"
		"required"	"0"
		"contenttag"	"l4d1"
		
		"paths"
		{
			"local"			"left4dead"
			"local"			"left4dead/pak01.vpk"

			"dedicated"			"left4dead"
			"dedicated"			"left4dead/pak01.vpk"

		}
	}
}